Regex
…
After using unnest_tokens, weve split each row so that there is one token (word) in each row of the new data frame; the default tokenization in unnest_tokens() is for single words (unigram), as shown here. Also notice:

Other columns, such as the line number each word came from, are retained.

Punctuation has been stripped.

By default, unnest_tokens() converts the tokens to lowercase, which makes them easier to compare or combine with other datasets. (Use the to_lower = FALSE argument to turn off this behavior).

Often in text analysis, we will want to remove stop words; stop words are words that are not useful for an analysis, typically extremely common words such as the, of, to, and so forth in English.

data(stop_words)
stop_words

## # A tibble: 1,149 x 2
##    word        lexicon
##    <chr>       <chr>  
##  1 a           SMART  
##  2 a's         SMART  
##  3 able        SMART  
##  4 about       SMART  
##  5 above       SMART  
##  6 according   SMART  
##  7 accordingly SMART  
##  8 across      SMART  
##  9 actually    SMART  
## 10 after       SMART  
## #  with 1,139 more rows
…
## Joining, by = "word"

Use relative frequencies

(news_propotions <- news_tokens %>% 
  group_by(id) %>% 
  mutate(propotion = n / sum(n)) %>% 
  select(-n) %>%
  arrange(id, desc(propotion)))

## # A tibble: 4,708 x 3
## # Groups:   id [20]
##    id    word     propotion
##    <chr> <chr>        <dbl>
##  1 01    church      0.0394
##  2 01    people      0.0215
##  3 01    budde       0.0179
##  4 01    johns      0.0179
##  5 01    st          0.0179
##  6 01    monday      0.0143
##  7 01    building    0.0125
##  8 01    police      0.0125
##  9 01    protests    0.0125
## 10 01    trump       0.0125
## #  with 4,698 more rows
…
The tidytext package contains several sentiment lexicons. Three general-purpose lexicons are

AFINN from Finn rup Nielsen,

bing from Bing Liu and collaborators, and

nrc from Saif Mohammad and Peter Turney.

All three of these lexicons are based on unigrams, i.e., single words. These lexicons contain many English words and the words are assigned scores for positive/negative sentiment, and also possibly emotions like joy, anger, sadness, and so forth. It is important to keep in mind that these methods do not take into account qualifiers before a word, such as in no good or not true; a lexicon-based method like this is based on unigrams only.

library(textdata)

get_sentiments("afinn")

## # A tibble: 2,477 x 2
##    word       value
##    <chr>      <dbl>
##  1 abandon       -2
##  2 abandoned     -2
##  3 abandons      -2
##  4 abducted      -2
##  5 abduction     -2
##  6 abductions    -2
##  7 abhor         -3
##  8 abhorred      -3
##  9 abhorrent     -3
## 10 abhors        -3
## #  with 2,467 more rows

get_sentiments("bing")

## # A tibble: 6,786 x 2
##    word        sentiment
##    <chr>       <chr>    
##  1 2-faces     negative 
##  2 abnormal    negative 
##  3 abolish     negative 
##  4 abominable  negative 
##  5 abominably  negative 
##  6 abominate   negative 
##  7 abomination negative 
##  8 abort       negative 
##  9 aborted     negative 
## 10 aborts      negative 
## #  with 6,776 more rows

get_sentiments("nrc")

## # A tibble: 13,901 x 2
##    word        sentiment
##    <chr>       <chr>    
##  1 abacus      trust    
##  2 abandon     fear     
##  3 abandon     negative 
##  4 abandon     sadness  
##  5 abandoned   anger    
##  6 abandoned   fear     
##  7 abandoned   negative 
##  8 abandoned   sadness  
##  9 abandonment anger    
## 10 abandonment fear     
## #  with 13,891 more rows
…
\[
\text{tf_idf} = \text{tf} \times \text{idf}
\]

Show the 3 most important words in each document.

news_tokens %>% 
  bind_tf_idf(word, id, n) %>%
  slice_max(tf_idf, n = 3) %>%
  select(id, word, n, tf_idf)

## # A tibble: 69 x 4
## # Groups:   id [20]
##    id    word          n tf_idf
##    <chr> <chr>     <int>  <dbl>
##  1 01    church       22 0.0633
##  2 01    budde        10 0.0412
##  3 01    johns       10 0.0412
##  4 02    military      6 0.0186
##  5 02    johns         2 0.0154
##  6 02    requested     2 0.0154
##  7 02    restore       2 0.0154
##  8 02    starts        2 0.0154
##  9 02    thousands     2 0.0154
## 10 02    urging        2 0.0154
## #  with 59 more rows
…
Word-topic probabilities

The following table shows the probability of a specific term occurring in a topic.

tidy(news_lda, matrix = "beta") %>% 
  group_by(topic) %>% 
  top_n(10, beta) %>% 
  arrange(topic, desc(beta))

## Warning: `tbl_df()` is deprecated as of dplyr 1.0.0.
## Please use `tibble::as_tibble()` instead.
## This warning is displayed once every 8 hours.
## Call `lifecycle::last_warnings()` to see where this warning was generated.

## # A tibble: 42 x 3
## # Groups:   topic [4]
##    topic term            beta
##    <int> <chr>          <dbl>
##  1     1 twitter      0.0200 
##  2     1 nike         0.0162 
##  3     1 protests     0.0124 
##  4     1 employees    0.00951
##  5     1 sports       0.00951
##  6     1 facebook     0.00856
##  7     1 accounts     0.00856
##  8     1 messages     0.00760
##  9     1 posted       0.00760
## 10     1 spokesperson 0.00665
## #  with 32 more rows
…
CTM

Correlated topic model is an extension of LDA which supports correlations between topics.

news_ctm <- CTM(
  cast_dtm(news_tokens, id, word, n), 
  k = 4, 
  control = list(seed = 1234) )

tidy(news_ctm, matrix = "beta") %>% 
  group_by(topic) %>% 
  top_n(10, beta) %>% 
  arrange(topic, desc(beta))

## # A tibble: 40 x 3
## # Groups:   topic [4]
##    topic term          beta
##    <int> <chr>        <dbl>
##  1     1 trump      0.0171 
##  2     1 church     0.0150 
##  3     1 president  0.0105 
##  4     1 nike       0.00913
##  5     1 people     0.00907
##  6     1 protests   0.00840
##  7     1 st         0.00805
##  8     1 protesters 0.00706
##  9     1 police     0.00648
## 10     1 budde      0.00644
## #  with 30 more rows
…
